326.212 Final Project: Part 2
…
SMF: Sacramento International Airport

Q1-2

flights <- tbl(con, "flights")

airportcounts <- flights %>%
  filter(Dest == "SNA" | Dest == "SJC" | Dest == "SMF") %>%
  group_by(Year, Month, Dest) %>%
  summarise(count = n()) %>%
  collect()

airportcounts

## # A tibble: 648 x 4
## # Groups:   Year, Month [216]
##     Year Month Dest  count
##    <dbl> <dbl> <chr> <int>
##  1  2001     1 SJC    6321
##  2  2001     1 SMF    3325
##  3  2001     1 SNA    3726
##  4  2001     2 SJC    5720
##  5  2001     2 SMF    2930
##  6  2001     2 SNA    3327
##  7  2001     3 SJC    6426
##  8  2001     3 SMF    3342
##  9  2001     3 SNA    3676
## 10  2001     4 SJC    6202
## # ... with 638 more rows
…
## 
## Attaching package: 'lubridate'

## The following object is masked from 'package:base':
## 
##     date

airportcounts <- airportcounts %>%
  mutate(Date = lubridate::make_date(Year, Month)) %>%
  arrange(Date)

airportcounts

## # A tibble: 648 x 5
## # Groups:   Year, Month [216]
##     Year Month Dest  count Date      
##    <dbl> <dbl> <chr> <int> <date>    
##  1  2001     1 SJC    6321 2001-01-01
##  2  2001     1 SMF    3325 2001-01-01
##  3  2001     1 SNA    3726 2001-01-01
##  4  2001     2 SJC    5720 2001-02-01
##  5  2001     2 SMF    2930 2001-02-01
##  6  2001     2 SNA    3327 2001-02-01
##  7  2001     3 SJC    6426 2001-03-01
##  8  2001     3 SMF    3342 2001-03-01
##  9  2001     3 SNA    3676 2001-03-01
## 10  2001     4 SJC    6202 2001-04-01
## # ... with 638 more rows
…
## Warning: Missing values are always removed in SQL.
## Use `mean(x, na.rm = TRUE)` to silence this warning
## This warning is displayed only once per session.

delays

## # A tibble: 1,193 x 6
## # Groups:   Year, Month, Day_of_Month [365]
##     Year Month Day_of_Month Op_Unique_Carrier avg_ArrDelay count
##    <dbl> <dbl>        <dbl> <chr>                    <dbl> <int>
##  1  2015     1            1 AA                      120.       3
##  2  2015     1            1 DL                      -12.5      2
##  3  2015     1            1 MQ                        2.33     3
##  4  2015     1            2 AA                      -10.5      3
##  5  2015     1            2 DL                       -1        3
##  6  2015     1            2 MQ                        3.33     3
##  7  2015     1            3 AA                      124.       3
##  8  2015     1            3 DL                       48.5      2
##  9  2015     1            3 MQ                       20        2
## 10  2015     1            4 AA                      101.       3
## # ... with 1,183 more rows
…
Q3. All flights (30 pts)

Q3-1

count_mondays_2001 <- flights %>%
  filter(Year == 2001 & Day_Of_Week == 1) %>%
  group_by(Year, Month, Day_of_Month) %>%
  summarise(count = n()) %>%
  collect() %>%
  mutate(Date = make_date(Year, Month, Day_of_Month))

count_mondays_2001

## # A tibble: 53 x 5
## # Groups:   Year, Month [12]
##     Year Month Day_of_Month count Date      
##    <dbl> <dbl>        <dbl> <int> <date>    
##  1  2001     1            1 16081 2001-01-01
##  2  2001     1            8 17491 2001-01-08
##  3  2001     1           15 17510 2001-01-15
##  4  2001     1           22 17534 2001-01-22
##  5  2001     1           29 17533 2001-01-29
##  6  2001     2            5 17473 2001-02-05
##  7  2001     2           12 17472 2001-02-12
##  8  2001     2           19 17343 2001-02-19
##  9  2001     2           26 17543 2001-02-26
## 10  2001     3            5 17570 2001-03-05
## # ... with 43 more rows
…
December 31st, the day before New Years Day, also shows a relatively small number of flights.

Q3-2

count_mondays_2011 <- flights %>%
  filter(Year == 2011 & Day_Of_Week == 1) %>%
  group_by(Year, Month, Day_of_Month) %>%
  summarise(count = n()) %>%
  collect() %>%
  mutate(Date = make_date(Year, Month, Day_of_Month))

count_mondays_2011

## # A tibble: 52 x 5
## # Groups:   Year, Month [12]
##     Year Month Day_of_Month count Date      
##    <dbl> <dbl>        <dbl> <int> <date>    
##  1  2011     1            3 17381 2011-01-03
##  2  2011     1           10 16743 2011-01-10
##  3  2011     1           17 16652 2011-01-17
##  4  2011     1           24 16695 2011-01-24
##  5  2011     1           31 16698 2011-01-31
##  6  2011     2            7 16881 2011-02-07
##  7  2011     2           14 16817 2011-02-14
##  8  2011     2           21 17157 2011-02-21
##  9  2011     2           28 17261 2011-02-28
## 10  2011     3            7 17420 2011-03-07
## # ... with 42 more rows
…
